<svg width="36" height="66" viewBox="0 0 36 66" fill="none" xmlns="http://www.w3.org/2000/svg">
<g style="mix-blend-mode:multiply">
<path d="M17.9388 0.588684H0.625977V65.7609H17.9388L35.2516 33.1748L17.9388 0.588684Z" fill="#1E0818"/>
</g>
</svg>
