<svg width="17" height="28" viewBox="0 0 17 28" fill="none" xmlns="http://www.w3.org/2000/svg">
<path d="M12.5466 1.17351L1.50863 12.4051C0.652071 13.2812 0.652071 14.6963 1.50863 15.5725L12.5466 26.8041C13.3722 27.5251 14.593 27.5251 15.4186 26.8041C16.3437 25.9976 16.4518 24.578 15.6592 23.6367L6.18875 14L15.6593 4.34085C16.5159 3.46474 16.5159 2.04963 15.6593 1.17351C14.7983 0.301925 13.4075 0.301925 12.5466 1.17351Z" fill="#582D4E"/>
</svg>
